<?xml version="1.0" encoding="utf-8"?>
<!-- Generator: Adobe Illustrator 23.0.3, SVG Export Plug-In . SVG Version: 6.00 Build 0)  -->
<svg version="1.1" id="Ebene_1" xmlns="http://www.w3.org/2000/svg" xmlns:xlink="http://www.w3.org/1999/xlink" x="0px" y="0px"
	 viewBox="0 0 650 650" style="enable-background:new 0 0 650 650;" xml:space="preserve">
<style type="text/css">
	.st0{fill:#E73C52;}
</style>
<g>
	<path class="st0" d="M462.9,31.6c103.1,0,187.1,95.6,187.1,213c0,69.6-44.4,137.2-74.4,170C518.2,478.8,325,642,325,642
		S131.8,478.8,74.4,414.6C44.4,381.9,0,314.3,0,244.6c0-117.4,84-213,187.1-213c54.6,0,105.1,48.5,139.3,91.5
		C360.5,80.1,408.3,31.6,462.9,31.6z M467.4,191.6L292.7,366.3l-64.4-64.4L198.2,332l94.5,94.5l204.8-204.8L467.4,191.6z"/>
</g>
</svg>
