<?xml version="1.0" encoding="utf-8"?>
<!-- Generator: Adobe Illustrator 23.0.3, SVG Export Plug-In . SVG Version: 6.00 Build 0)  -->
<svg version="1.1" id="Layer_1" xmlns="http://www.w3.org/2000/svg" xmlns:xlink="http://www.w3.org/1999/xlink" x="0px" y="0px"
	 viewBox="0 0 75 75" style="enable-background:new 0 0 75 75;" xml:space="preserve">
<style type="text/css">
	.st0{fill:#FFFFFF;stroke:#E73C52;stroke-miterlimit:10;}
</style>
<path class="st0" d="M59.7,50.6v5.9c0,3.7-9.3,6.6-20.9,6.6c-11.5,0-20.9-3-20.9-6.6v-5.9"/>
<path class="st0" d="M38.8,44c11.5,0,20.9,3,20.9,6.6c0,3.7-9.3,6.6-20.9,6.6c-11.5,0-20.9-3-20.9-6.6C17.9,47,27.3,44,38.8,44z"/>
<path class="st0" d="M55.8,41.4v5.9c0,3.7-9.4,6.6-20.9,6.6c-11.5,0-20.9-3-20.9-6.6v-5.9"/>
<ellipse class="st0" cx="34.9" cy="41.4" rx="20.9" ry="6.6"/>
<path class="st0" d="M59.7,31.2V37c0,3.7-9.3,6.6-20.9,6.6c-11.5,0-20.9-3-20.9-6.6v-5.9"/>
<path class="st0" d="M38.8,24.5c11.5,0,20.9,3,20.9,6.6c0,3.7-9.3,6.6-20.9,6.6c-11.5,0-20.9-3-20.9-6.6
	C17.9,27.5,27.3,24.5,38.8,24.5z"/>
</svg>
