<?xml version="1.0" encoding="utf-8"?>
<!-- Generator: Adobe Illustrator 23.0.3, SVG Export Plug-In . SVG Version: 6.00 Build 0)  -->
<svg version="1.1" id="Layer_1" xmlns="http://www.w3.org/2000/svg" xmlns:xlink="http://www.w3.org/1999/xlink" x="0px" y="0px"
	 viewBox="0 0 75 75" style="enable-background:new 0 0 75 75;" xml:space="preserve">
<style type="text/css">
	.st0{fill:#FFFFFF;stroke:#E73C52;stroke-miterlimit:10;}
</style>
<path class="st0" d="M58.6,50.9v5.9c0,3.7-9.4,6.6-20.9,6.6s-20.9-3-20.9-6.6v-5.9"/>
<ellipse class="st0" cx="37.8" cy="50.9" rx="20.9" ry="6.6"/>
</svg>
