<?xml version="1.0" encoding="utf-8"?>
<!-- Generator: Adobe Illustrator 23.0.3, SVG Export Plug-In . SVG Version: 6.00 Build 0)  -->
<svg version="1.1" id="Layer_1" xmlns="http://www.w3.org/2000/svg" xmlns:xlink="http://www.w3.org/1999/xlink" x="0px" y="0px"
	 viewBox="0 0 75 75" style="enable-background:new 0 0 75 75;" xml:space="preserve">
<style type="text/css">
	.st0{fill:#FFFFFF;stroke:#E73C52;stroke-miterlimit:10;}
	.st1{opacity:0.44;fill:#359980;enable-background:new    ;}
	.st2{font-family:'ArialMT';}
	.st3{font-size:12.9888px;}
</style>
<path class="st0" d="M57.5,50.4v5.9c0,3.7-9.4,6.6-20.9,6.6c-11.5,0-20.9-3-20.9-6.6v-5.9"/>
<ellipse class="st0" cx="36.7" cy="50.4" rx="20.9" ry="6.6"/>
<text transform="matrix(6.100000e-03 -0.8174 1 7.500000e-03 43.9158 42.8688)" class="st1 st2 st3">$</text>
<path class="st0" d="M61.2,39.7v5.9c0,3.7-9.4,6.6-20.9,6.6c-11.5,0-20.9-3-20.9-6.6v-5.9"/>
<ellipse class="st0" cx="40.3" cy="39.7" rx="20.9" ry="6.6"/>
<path class="st0" d="M12.1,31.5v5.9C12.1,41,21.5,44,33,44c11.5,0,20.9-3,20.9-6.6v-5.9"/>
<ellipse class="st0" cx="33" cy="31.5" rx="20.9" ry="6.6"/>
<text transform="matrix(-6.100000e-03 -0.8174 -1 7.500000e-03 25.7652 23.9923)" class="st1 st2 st3">$</text>
<path class="st0" d="M19.4,21.5v5.9c0,3.7,9.4,6.6,20.9,6.6c11.5,0,20.9-3,20.9-6.6v-5.9"/>
<ellipse class="st0" cx="40.3" cy="21.5" rx="20.9" ry="6.6"/>
</svg>
