<?xml version="1.0" encoding="utf-8"?>
<!-- Generator: Adobe Illustrator 23.0.3, SVG Export Plug-In . SVG Version: 6.00 Build 0)  -->
<svg version="1.1" id="Layer_1" xmlns="http://www.w3.org/2000/svg" xmlns:xlink="http://www.w3.org/1999/xlink" x="0px" y="0px"
	 viewBox="0 0 75 75" style="enable-background:new 0 0 75 75;" xml:space="preserve">
<style type="text/css">
	.st0{fill:#E73C52;}
</style>
<path class="st0" d="M29,62.1c-1.1,1.4-3,1.7-4.8-0.1c-1.6-1.6-1-3.2,0.2-4.5l32.3-32.3c0.7-0.7,1-0.4,1.3,0.2
	c2.6,4.8-3.1,13.7-9.6,20.1c-4.7,4.7-5.1-1.1-8.2,2.7L29,62.1z"/>
<path class="st0" d="M33,42.8l1.9,2.1l2.8-2.8l-2.1-1.9c2.1-2.8,1.2-5.7-1.4-7.9l-9.4-8c-0.5-0.4-1-0.5-1.5,0c-0.5,0.5-0.5,1,0,1.5
	l7.3,7.3c0.5,0.5,0.5,1.1,0,1.6l0,0c-0.5,0.5-1.1,0.5-1.6,0l-7.3-7.3c-0.5-0.5-1-0.5-1.5,0c-0.5,0.5-0.5,1,0,1.5l7.3,7.3
	c0.5,0.5,0.5,1.1,0,1.6l0,0c-0.5,0.5-1.1,0.5-1.6,0l-7.3-7.3c-0.5-0.5-1-0.5-1.5,0c-0.5,0.5-0.4,1,0,1.5l7.9,9.4
	C27.3,44.1,30.2,44.9,33,42.8z"/>
<path class="st0" d="M54.8,57.4L45.4,49c-0.1,0-0.2,0-0.4,0c-0.8,0-1.5-0.3-2-0.4c-0.2-0.1-0.5-0.2-0.6-0.2c0,0-0.3,0-0.9,0.8
	l-1.4,1.7l9.9,11.2c1.4,1.6,3.1,1.5,4.7,0C56.4,60.5,56.4,58.8,54.8,57.4z"/>
</svg>
