<?xml version="1.0" encoding="utf-8"?>
<!-- Generator: Adobe Illustrator 23.0.3, SVG Export Plug-In . SVG Version: 6.00 Build 0)  -->
<svg version="1.1" id="Layer_1" xmlns="http://www.w3.org/2000/svg" xmlns:xlink="http://www.w3.org/1999/xlink" x="0px" y="0px"
	 viewBox="0 0 75 75" style="enable-background:new 0 0 75 75;" xml:space="preserve">
<style type="text/css">
	.st0{fill:#E73C52;stroke:#FFFFFF;stroke-miterlimit:10;}
</style>
<path class="st0" d="M35.7,36.5c0,0.5-0.4,1-1,1h-8.6c-0.5,0-1-0.4-1-1c0-0.6,0.4-1,1-1h8.6C35.3,35.5,35.7,36,35.7,36.5z
	 M26.2,41.6h8.1c0.5,0,1-0.4,1-1c0-0.6-0.4-1-1-1h-8.1c-0.5,0-1,0.4-1,1C25.2,41.2,25.6,41.6,26.2,41.6z M47.1,40.4
	c-0.5,0-1,0.4-1,1v6.3c0,1.4-1.2,2.7-2.7,2.7H31c-0.3,0-0.5,0.1-0.7,0.3l-5,4.8v-4.2c0-0.5-0.4-1-1-1h-2.8c-1.4,0-2.7-1.2-2.7-2.7
	V34.2c0-1.4,1.2-2.7,2.7-2.7h16.1c0.5,0,1-0.4,1-1c0-0.6-0.4-1-1-1H21.5c-2.5,0-4.6,2.1-4.6,4.6v13.4c0,2.5,2.1,4.6,4.6,4.6h1.9v5.5
	c0,0.4,0.2,0.7,0.6,0.9c0.1,0.1,0.3,0.1,0.4,0.1c0.3,0,0.5-0.1,0.7-0.3l6.4-6.1h12.1c2.5,0,4.6-2.1,4.6-4.6v-6.3
	C48.1,40.8,47.7,40.4,47.1,40.4z M26.2,45.8h12.7c0.5,0,1-0.4,1-1c0-0.6-0.4-1-1-1H26.2c-0.5,0-1,0.4-1,1
	C25.2,45.4,25.6,45.8,26.2,45.8z M58.1,27.3l-1.2,1.2l-0.1,0.1l-0.1,0.1L45,40.3c-0.2,0.2-0.4,0.3-0.6,0.3L38,41.5
	c-0.1,0-0.1,0-0.2,0c-0.3,0-0.5-0.1-0.7-0.3c-0.2-0.2-0.3-0.5-0.3-0.8l0.9-6.5c0.1-0.2,0.1-0.4,0.3-0.6l11.7-11.7l0.1-0.1l0.1-0.1
	l1.2-1.2c1.5-1.5,3.9-1.5,5.4,0l1.6,1.6l0,0C59.6,23.4,59.6,25.8,58.1,27.3z M54.8,27.8l-1.4-1.4L43,36.7l1.4,1.4L54.8,27.8z M52,25
	l-1.4-1.4L40.2,34l1.4,1.4L52,25z M39,39.4l3.4-0.5l-3-3L39,39.4z M56.7,23.3l-1.6-1.6c-0.7-0.7-1.9-0.7-2.6,0L52,22.2l4.2,4.2
	l0.5-0.5C57.5,25.2,57.5,24,56.7,23.3z"/>
</svg>
